{"frames": [

{
	"filename": "explosion_001.png",
	"frame": {"x":2,"y":2,"w":144,"h":144},
	"rotated": false,
	"trimmed": false,
	"spriteSourceSize": {"x":0,"y":0,"w":144,"h":144},
	"sourceSize": {"w":144,"h":144},
	"pivot": {"x":0.5,"y":0.5}
},
{
	"filename": "explosion_002.png",
	"frame": {"x":148,"y":2,"w":144,"h":144},
	"rotated": false,
	"trimmed": false,
	"spriteSourceSize": {"x":0,"y":0,"w":144,"h":144},
	"sourceSize": {"w":144,"h":144},
	"pivot": {"x":0.5,"y":0.5}
},
{
	"filename": "explosion_003.png",
	"frame": {"x":294,"y":2,"w":144,"h":144},
	"rotated": false,
	"trimmed": false,
	"spriteSourceSize": {"x":0,"y":0,"w":144,"h":144},
	"sourceSize": {"w":144,"h":144},
	"pivot": {"x":0.5,"y":0.5}
},
{
	"filename": "explosion_004.png",
	"frame": {"x":440,"y":2,"w":144,"h":144},
	"rotated": false,
	"trimmed": false,
	"spriteSourceSize": {"x":0,"y":0,"w":144,"h":144},
	"sourceSize": {"w":144,"h":144},
	"pivot": {"x":0.5,"y":0.5}
},
{
	"filename": "explosion_005.png",
	"frame": {"x":586,"y":2,"w":144,"h":144},
	"rotated": false,
	"trimmed": false,
	"spriteSourceSize": {"x":0,"y":0,"w":144,"h":144},
	"sourceSize": {"w":144,"h":144},
	"pivot": {"x":0.5,"y":0.5}
},
{
	"filename": "explosion_006.png",
	"frame": {"x":732,"y":2,"w":144,"h":144},
	"rotated": false,
	"trimmed": false,
	"spriteSourceSize": {"x":0,"y":0,"w":144,"h":144},
	"sourceSize": {"w":144,"h":144},
	"pivot": {"x":0.5,"y":0.5}
},
{
	"filename": "explosion_007.png",
	"frame": {"x":878,"y":2,"w":144,"h":144},
	"rotated": false,
	"trimmed": false,
	"spriteSourceSize": {"x":0,"y":0,"w":144,"h":144},
	"sourceSize": {"w":144,"h":144},
	"pivot": {"x":0.5,"y":0.5}
},
{
	"filename": "explosion_008.png",
	"frame": {"x":1024,"y":2,"w":144,"h":144},
	"rotated": false,
	"trimmed": false,
	"spriteSourceSize": {"x":0,"y":0,"w":144,"h":144},
	"sourceSize": {"w":144,"h":144},
	"pivot": {"x":0.5,"y":0.5}
},
{
	"filename": "explosion_009.png",
	"frame": {"x":1170,"y":2,"w":144,"h":144},
	"rotated": false,
	"trimmed": false,
	"spriteSourceSize": {"x":0,"y":0,"w":144,"h":144},
	"sourceSize": {"w":144,"h":144},
	"pivot": {"x":0.5,"y":0.5}
},
{
	"filename": "explosion_010.png",
	"frame": {"x":1316,"y":2,"w":144,"h":144},
	"rotated": false,
	"trimmed": false,
	"spriteSourceSize": {"x":0,"y":0,"w":144,"h":144},
	"sourceSize": {"w":144,"h":144},
	"pivot": {"x":0.5,"y":0.5}
},
{
	"filename": "explosion_011.png",
	"frame": {"x":1462,"y":2,"w":144,"h":144},
	"rotated": false,
	"trimmed": false,
	"spriteSourceSize": {"x":0,"y":0,"w":144,"h":144},
	"sourceSize": {"w":144,"h":144},
	"pivot": {"x":0.5,"y":0.5}
},
{
	"filename": "explosion_012.png",
	"frame": {"x":2,"y":148,"w":144,"h":144},
	"rotated": false,
	"trimmed": false,
	"spriteSourceSize": {"x":0,"y":0,"w":144,"h":144},
	"sourceSize": {"w":144,"h":144},
	"pivot": {"x":0.5,"y":0.5}
},
{
	"filename": "explosion_013.png",
	"frame": {"x":148,"y":148,"w":144,"h":144},
	"rotated": false,
	"trimmed": false,
	"spriteSourceSize": {"x":0,"y":0,"w":144,"h":144},
	"sourceSize": {"w":144,"h":144},
	"pivot": {"x":0.5,"y":0.5}
},
{
	"filename": "explosion_014.png",
	"frame": {"x":294,"y":148,"w":144,"h":144},
	"rotated": false,
	"trimmed": false,
	"spriteSourceSize": {"x":0,"y":0,"w":144,"h":144},
	"sourceSize": {"w":144,"h":144},
	"pivot": {"x":0.5,"y":0.5}
},
{
	"filename": "explosion_015.png",
	"frame": {"x":440,"y":148,"w":144,"h":144},
	"rotated": false,
	"trimmed": false,
	"spriteSourceSize": {"x":0,"y":0,"w":144,"h":144},
	"sourceSize": {"w":144,"h":144},
	"pivot": {"x":0.5,"y":0.5}
},
{
	"filename": "explosion_016.png",
	"frame": {"x":586,"y":148,"w":144,"h":144},
	"rotated": false,
	"trimmed": false,
	"spriteSourceSize": {"x":0,"y":0,"w":144,"h":144},
	"sourceSize": {"w":144,"h":144},
	"pivot": {"x":0.5,"y":0.5}
},
{
	"filename": "explosion_017.png",
	"frame": {"x":732,"y":148,"w":144,"h":144},
	"rotated": false,
	"trimmed": false,
	"spriteSourceSize": {"x":0,"y":0,"w":144,"h":144},
	"sourceSize": {"w":144,"h":144},
	"pivot": {"x":0.5,"y":0.5}
},
{
	"filename": "explosion_018.png",
	"frame": {"x":878,"y":148,"w":144,"h":144},
	"rotated": false,
	"trimmed": false,
	"spriteSourceSize": {"x":0,"y":0,"w":144,"h":144},
	"sourceSize": {"w":144,"h":144},
	"pivot": {"x":0.5,"y":0.5}
},
{
	"filename": "explosion_019.png",
	"frame": {"x":1024,"y":148,"w":144,"h":144},
	"rotated": false,
	"trimmed": false,
	"spriteSourceSize": {"x":0,"y":0,"w":144,"h":144},
	"sourceSize": {"w":144,"h":144},
	"pivot": {"x":0.5,"y":0.5}
},
{
	"filename": "explosion_020.png",
	"frame": {"x":1170,"y":148,"w":144,"h":144},
	"rotated": false,
	"trimmed": false,
	"spriteSourceSize": {"x":0,"y":0,"w":144,"h":144},
	"sourceSize": {"w":144,"h":144},
	"pivot": {"x":0.5,"y":0.5}
},
{
	"filename": "explosion_021.png",
	"frame": {"x":1316,"y":148,"w":144,"h":144},
	"rotated": false,
	"trimmed": false,
	"spriteSourceSize": {"x":0,"y":0,"w":144,"h":144},
	"sourceSize": {"w":144,"h":144},
	"pivot": {"x":0.5,"y":0.5}
},
{
	"filename": "explosion_022.png",
	"frame": {"x":1462,"y":148,"w":144,"h":144},
	"rotated": false,
	"trimmed": false,
	"spriteSourceSize": {"x":0,"y":0,"w":144,"h":144},
	"sourceSize": {"w":144,"h":144},
	"pivot": {"x":0.5,"y":0.5}
},
{
	"filename": "explosion_023.png",
	"frame": {"x":2,"y":294,"w":144,"h":144},
	"rotated": false,
	"trimmed": false,
	"spriteSourceSize": {"x":0,"y":0,"w":144,"h":144},
	"sourceSize": {"w":144,"h":144},
	"pivot": {"x":0.5,"y":0.5}
},
{
	"filename": "explosion_024.png",
	"frame": {"x":148,"y":294,"w":144,"h":144},
	"rotated": false,
	"trimmed": false,
	"spriteSourceSize": {"x":0,"y":0,"w":144,"h":144},
	"sourceSize": {"w":144,"h":144},
	"pivot": {"x":0.5,"y":0.5}
},
{
	"filename": "explosion_025.png",
	"frame": {"x":294,"y":294,"w":144,"h":144},
	"rotated": false,
	"trimmed": false,
	"spriteSourceSize": {"x":0,"y":0,"w":144,"h":144},
	"sourceSize": {"w":144,"h":144},
	"pivot": {"x":0.5,"y":0.5}
},
{
	"filename": "explosion_026.png",
	"frame": {"x":440,"y":294,"w":144,"h":144},
	"rotated": false,
	"trimmed": false,
	"spriteSourceSize": {"x":0,"y":0,"w":144,"h":144},
	"sourceSize": {"w":144,"h":144},
	"pivot": {"x":0.5,"y":0.5}
},
{
	"filename": "explosion_027.png",
	"frame": {"x":586,"y":294,"w":144,"h":144},
	"rotated": false,
	"trimmed": false,
	"spriteSourceSize": {"x":0,"y":0,"w":144,"h":144},
	"sourceSize": {"w":144,"h":144},
	"pivot": {"x":0.5,"y":0.5}
},
{
	"filename": "explosion_028.png",
	"frame": {"x":732,"y":294,"w":144,"h":144},
	"rotated": false,
	"trimmed": false,
	"spriteSourceSize": {"x":0,"y":0,"w":144,"h":144},
	"sourceSize": {"w":144,"h":144},
	"pivot": {"x":0.5,"y":0.5}
},
{
	"filename": "explosion_029.png",
	"frame": {"x":878,"y":294,"w":144,"h":144},
	"rotated": false,
	"trimmed": false,
	"spriteSourceSize": {"x":0,"y":0,"w":144,"h":144},
	"sourceSize": {"w":144,"h":144},
	"pivot": {"x":0.5,"y":0.5}
},
{
	"filename": "explosion_030.png",
	"frame": {"x":1024,"y":294,"w":144,"h":144},
	"rotated": false,
	"trimmed": false,
	"spriteSourceSize": {"x":0,"y":0,"w":144,"h":144},
	"sourceSize": {"w":144,"h":144},
	"pivot": {"x":0.5,"y":0.5}
},
{
	"filename": "explosion_031.png",
	"frame": {"x":1170,"y":294,"w":144,"h":144},
	"rotated": false,
	"trimmed": false,
	"spriteSourceSize": {"x":0,"y":0,"w":144,"h":144},
	"sourceSize": {"w":144,"h":144},
	"pivot": {"x":0.5,"y":0.5}
},
{
	"filename": "explosion_032.png",
	"frame": {"x":1316,"y":294,"w":144,"h":144},
	"rotated": false,
	"trimmed": false,
	"spriteSourceSize": {"x":0,"y":0,"w":144,"h":144},
	"sourceSize": {"w":144,"h":144},
	"pivot": {"x":0.5,"y":0.5}
},
{
	"filename": "explosion_033.png",
	"frame": {"x":1316,"y":294,"w":144,"h":144},
	"rotated": false,
	"trimmed": false,
	"spriteSourceSize": {"x":0,"y":0,"w":144,"h":144},
	"sourceSize": {"w":144,"h":144},
	"pivot": {"x":0.5,"y":0.5}
},
{
	"filename": "explosion_034.png",
	"frame": {"x":1316,"y":294,"w":144,"h":144},
	"rotated": false,
	"trimmed": false,
	"spriteSourceSize": {"x":0,"y":0,"w":144,"h":144},
	"sourceSize": {"w":144,"h":144},
	"pivot": {"x":0.5,"y":0.5}
}],
"meta": {
	"app": "http://www.codeandweb.com/texturepacker",
	"version": "1.0",
	"image": "splosion.png",
	"format": "RGBA8888",
	"size": {"w":1608,"h":440},
	"scale": "1",
	"smartupdate": "$TexturePacker:SmartUpdate:016c439b8827e207f2198b541636c67e:6c64b267f03c82ffc2f1273d22232e0d:dd0c5108a191dbdd6664b9d00d3cd16c$"
}
}
